-- Merging decision tree log ---
manifest
ADDED from D:\testKerja\gameconsign\lookfor\android\app\src\main\AndroidManifest.xml:1:1-44:12
INJECTED from D:\testKerja\gameconsign\lookfor\android\app\src\main\AndroidManifest.xml:1:1-44:12
INJECTED from D:\testKerja\gameconsign\lookfor\android\app\src\main\AndroidManifest.xml:1:1-44:12
INJECTED from D:\testKerja\gameconsign\lookfor\android\app\src\main\AndroidManifest.xml:1:1-44:12
MERGED from D:\testKerja\gameconsign\lookfor\android\app\src\main\AndroidManifest.xml:1:1-44:12
MERGED from [:shared_preferences_android] D:\testKerja\gameconsign\lookfor\build\shared_preferences_android\intermediates\library_manifest\debug\AndroidManifest.xml:2:1-7:12
MERGED from [:permission_handler_android] D:\testKerja\gameconsign\lookfor\build\permission_handler_android\intermediates\library_manifest\debug\AndroidManifest.xml:2:1-7:12
MERGED from [:geolocator_android] D:\testKerja\gameconsign\lookfor\build\geolocator_android\intermediates\library_manifest\debug\AndroidManifest.xml:2:1-17:12
MERGED from [:geocoding] D:\testKerja\gameconsign\lookfor\build\geocoding\intermediates\library_manifest\debug\AndroidManifest.xml:2:1-7:12
MERGED from [:android_intent_plus] D:\testKerja\gameconsign\lookfor\build\android_intent_plus\intermediates\library_manifest\debug\AndroidManifest.xml:2:1-7:12
MERGED from [androidx.window:window-java:1.0.0-beta04] C:\Users\Lenovo\.gradle\caches\transforms-2\files-2.1\ad201fac15a88598107ec645f351f5b4\jetified-window-java-1.0.0-beta04\AndroidManifest.xml:17:1-23:12
MERGED from [androidx.window:window:1.0.0-beta04] C:\Users\Lenovo\.gradle\caches\transforms-2\files-2.1\03c633e46d75bfb21f082f0417f55161\jetified-window-1.0.0-beta04\AndroidManifest.xml:17:1-33:12
MERGED from [com.google.android.gms:play-services-location:21.0.1] C:\Users\Lenovo\.gradle\caches\transforms-2\files-2.1\d83a1044863c0fad099142167b7a43c3\jetified-play-services-location-21.0.1\AndroidManifest.xml:2:1-9:12
MERGED from [com.google.android.gms:play-services-base:18.1.0] C:\Users\Lenovo\.gradle\caches\transforms-2\files-2.1\7de7698b3b379bf98b32af45f2d0763d\jetified-play-services-base-18.1.0\AndroidManifest.xml:16:1-24:12
MERGED from [com.google.android.gms:play-services-tasks:18.0.2] C:\Users\Lenovo\.gradle\caches\transforms-2\files-2.1\b20a5b857026eace767748d41a82348c\jetified-play-services-tasks-18.0.2\AndroidManifest.xml:2:1-6:12
MERGED from [com.google.android.gms:play-services-basement:18.1.0] C:\Users\Lenovo\.gradle\caches\transforms-2\files-2.1\0cdd8aceb5059ba1c457f63b9183d1a3\jetified-play-services-basement-18.1.0\AndroidManifest.xml:16:1-26:12
MERGED from [androidx.fragment:fragment:1.1.0] C:\Users\Lenovo\.gradle\caches\transforms-2\files-2.1\8601dd65e0c6893d5abc5ccde1e2cab3\fragment-1.1.0\AndroidManifest.xml:17:1-24:12
MERGED from [androidx.viewpager:viewpager:1.0.0] C:\Users\Lenovo\.gradle\caches\transforms-2\files-2.1\ae39e38aa58f5c391f29a4bfad4a41a4\viewpager-1.0.0\AndroidManifest.xml:17:1-22:12
MERGED from [androidx.loader:loader:1.0.0] C:\Users\Lenovo\.gradle\caches\transforms-2\files-2.1\92d1f830d8a4f76d15ea1f849fb6f29f\loader-1.0.0\AndroidManifest.xml:17:1-22:12
MERGED from [androidx.activity:activity:1.0.0] C:\Users\Lenovo\.gradle\caches\transforms-2\files-2.1\172ae1f46f014e6681a2cc350fa8b737\jetified-activity-1.0.0\AndroidManifest.xml:17:1-24:12
MERGED from [androidx.customview:customview:1.0.0] C:\Users\Lenovo\.gradle\caches\transforms-2\files-2.1\9ccab238727e236e8aff01a0f95cebe4\customview-1.0.0\AndroidManifest.xml:17:1-22:12
MERGED from [androidx.core:core:1.9.0] C:\Users\Lenovo\.gradle\caches\transforms-2\files-2.1\2f9250fe16fd137113577b8384df889a\core-1.9.0\AndroidManifest.xml:17:1-30:12
MERGED from [androidx.tracing:tracing:1.0.0] C:\Users\Lenovo\.gradle\caches\transforms-2\files-2.1\6c6575c923e75933616af1a602db32e0\jetified-tracing-1.0.0\AndroidManifest.xml:17:1-24:12
MERGED from [androidx.lifecycle:lifecycle-runtime:2.3.1] C:\Users\Lenovo\.gradle\caches\transforms-2\files-2.1\8578375fbf5df5bbe65cca21a6cd6acf\lifecycle-runtime-2.3.1\AndroidManifest.xml:17:1-24:12
MERGED from [androidx.versionedparcelable:versionedparcelable:1.1.1] C:\Users\Lenovo\.gradle\caches\transforms-2\files-2.1\884708a9396f81808c0ac10f4b98ea32\versionedparcelable-1.1.1\AndroidManifest.xml:17:1-27:12
MERGED from [androidx.savedstate:savedstate:1.0.0] C:\Users\Lenovo\.gradle\caches\transforms-2\files-2.1\8d7928c9f52af5f964a662866fcebb3e\jetified-savedstate-1.0.0\AndroidManifest.xml:17:1-24:12
MERGED from [androidx.lifecycle:lifecycle-livedata:2.0.0] C:\Users\Lenovo\.gradle\caches\transforms-2\files-2.1\8108bc8c5f35a568f919dbab3be0e175\lifecycle-livedata-2.0.0\AndroidManifest.xml:17:1-22:12
MERGED from [androidx.lifecycle:lifecycle-livedata-core:2.0.0] C:\Users\Lenovo\.gradle\caches\transforms-2\files-2.1\403e5322101e882ebd13d146c86f92ca\lifecycle-livedata-core-2.0.0\AndroidManifest.xml:17:1-22:12
MERGED from [androidx.arch.core:core-runtime:2.1.0] C:\Users\Lenovo\.gradle\caches\transforms-2\files-2.1\16e110bf603f94cf61f970a18f3907e3\core-runtime-2.1.0\AndroidManifest.xml:17:1-24:12
MERGED from [androidx.lifecycle:lifecycle-viewmodel:2.1.0] C:\Users\Lenovo\.gradle\caches\transforms-2\files-2.1\9a0e475eb211916dfa0da9de1d6c02a3\lifecycle-viewmodel-2.1.0\AndroidManifest.xml:17:1-22:12
MERGED from [androidx.annotation:annotation-experimental:1.3.0] C:\Users\Lenovo\.gradle\caches\transforms-2\files-2.1\1cf488caa4c695cd9b77af7e050f0be6\jetified-annotation-experimental-1.3.0\AndroidManifest.xml:17:1-22:12
INJECTED from D:\testKerja\gameconsign\lookfor\android\app\src\debug\AndroidManifest.xml:1:1-7:12
INJECTED from D:\testKerja\gameconsign\lookfor\android\app\src\debug\AndroidManifest.xml:1:1-7:12
INJECTED from D:\testKerja\gameconsign\lookfor\android\app\src\debug\AndroidManifest.xml:1:1-7:12
	package
		ADDED from D:\testKerja\gameconsign\lookfor\android\app\src\main\AndroidManifest.xml:2:3-32
		INJECTED from D:\testKerja\gameconsign\lookfor\android\app\src\main\AndroidManifest.xml
		INJECTED from D:\testKerja\gameconsign\lookfor\android\app\src\debug\AndroidManifest.xml
	android:versionName
		INJECTED from D:\testKerja\gameconsign\lookfor\android\app\src\main\AndroidManifest.xml
		ADDED from D:\testKerja\gameconsign\lookfor\android\app\src\main\AndroidManifest.xml:1:1-44:12
		INJECTED from D:\testKerja\gameconsign\lookfor\android\app\src\debug\AndroidManifest.xml
	android:versionCode
		INJECTED from D:\testKerja\gameconsign\lookfor\android\app\src\main\AndroidManifest.xml
		ADDED from D:\testKerja\gameconsign\lookfor\android\app\src\main\AndroidManifest.xml:1:1-44:12
		INJECTED from D:\testKerja\gameconsign\lookfor\android\app\src\debug\AndroidManifest.xml
	xmlns:android
		ADDED from D:\testKerja\gameconsign\lookfor\android\app\src\main\AndroidManifest.xml:1:11-69
uses-permission#android.permission.INTERNET
ADDED from D:\testKerja\gameconsign\lookfor\android\app\src\main\AndroidManifest.xml:3:3-65
MERGED from D:\testKerja\gameconsign\lookfor\android\app\src\main\AndroidManifest.xml:3:3-65
MERGED from D:\testKerja\gameconsign\lookfor\android\app\src\main\AndroidManifest.xml:3:3-65
	android:name
		ADDED from D:\testKerja\gameconsign\lookfor\android\app\src\main\AndroidManifest.xml:3:20-62
uses-permission#android.permission.ACCESS_COARSE_LOCATION
ADDED from D:\testKerja\gameconsign\lookfor\android\app\src\main\AndroidManifest.xml:4:3-79
	android:name
		ADDED from D:\testKerja\gameconsign\lookfor\android\app\src\main\AndroidManifest.xml:4:20-76
uses-permission#android.permission.ACCESS_FINE_LOCATION
ADDED from D:\testKerja\gameconsign\lookfor\android\app\src\main\AndroidManifest.xml:5:3-77
	android:name
		ADDED from D:\testKerja\gameconsign\lookfor\android\app\src\main\AndroidManifest.xml:5:20-74
application
ADDED from D:\testKerja\gameconsign\lookfor\android\app\src\main\AndroidManifest.xml:6:3-43:17
MERGED from [:geolocator_android] D:\testKerja\gameconsign\lookfor\build\geolocator_android\intermediates\library_manifest\debug\AndroidManifest.xml:9:5-15:19
MERGED from [:geolocator_android] D:\testKerja\gameconsign\lookfor\build\geolocator_android\intermediates\library_manifest\debug\AndroidManifest.xml:9:5-15:19
MERGED from [androidx.window:window:1.0.0-beta04] C:\Users\Lenovo\.gradle\caches\transforms-2\files-2.1\03c633e46d75bfb21f082f0417f55161\jetified-window-1.0.0-beta04\AndroidManifest.xml:24:5-31:19
MERGED from [androidx.window:window:1.0.0-beta04] C:\Users\Lenovo\.gradle\caches\transforms-2\files-2.1\03c633e46d75bfb21f082f0417f55161\jetified-window-1.0.0-beta04\AndroidManifest.xml:24:5-31:19
MERGED from [com.google.android.gms:play-services-location:21.0.1] C:\Users\Lenovo\.gradle\caches\transforms-2\files-2.1\d83a1044863c0fad099142167b7a43c3\jetified-play-services-location-21.0.1\AndroidManifest.xml:7:5-20
MERGED from [com.google.android.gms:play-services-location:21.0.1] C:\Users\Lenovo\.gradle\caches\transforms-2\files-2.1\d83a1044863c0fad099142167b7a43c3\jetified-play-services-location-21.0.1\AndroidManifest.xml:7:5-20
MERGED from [com.google.android.gms:play-services-base:18.1.0] C:\Users\Lenovo\.gradle\caches\transforms-2\files-2.1\7de7698b3b379bf98b32af45f2d0763d\jetified-play-services-base-18.1.0\AndroidManifest.xml:19:5-23:19
MERGED from [com.google.android.gms:play-services-base:18.1.0] C:\Users\Lenovo\.gradle\caches\transforms-2\files-2.1\7de7698b3b379bf98b32af45f2d0763d\jetified-play-services-base-18.1.0\AndroidManifest.xml:19:5-23:19
MERGED from [com.google.android.gms:play-services-tasks:18.0.2] C:\Users\Lenovo\.gradle\caches\transforms-2\files-2.1\b20a5b857026eace767748d41a82348c\jetified-play-services-tasks-18.0.2\AndroidManifest.xml:5:5-20
MERGED from [com.google.android.gms:play-services-tasks:18.0.2] C:\Users\Lenovo\.gradle\caches\transforms-2\files-2.1\b20a5b857026eace767748d41a82348c\jetified-play-services-tasks-18.0.2\AndroidManifest.xml:5:5-20
MERGED from [com.google.android.gms:play-services-basement:18.1.0] C:\Users\Lenovo\.gradle\caches\transforms-2\files-2.1\0cdd8aceb5059ba1c457f63b9183d1a3\jetified-play-services-basement-18.1.0\AndroidManifest.xml:20:5-24:19
MERGED from [com.google.android.gms:play-services-basement:18.1.0] C:\Users\Lenovo\.gradle\caches\transforms-2\files-2.1\0cdd8aceb5059ba1c457f63b9183d1a3\jetified-play-services-basement-18.1.0\AndroidManifest.xml:20:5-24:19
MERGED from [androidx.core:core:1.9.0] C:\Users\Lenovo\.gradle\caches\transforms-2\files-2.1\2f9250fe16fd137113577b8384df889a\core-1.9.0\AndroidManifest.xml:28:5-89
MERGED from [androidx.core:core:1.9.0] C:\Users\Lenovo\.gradle\caches\transforms-2\files-2.1\2f9250fe16fd137113577b8384df889a\core-1.9.0\AndroidManifest.xml:28:5-89
MERGED from [androidx.versionedparcelable:versionedparcelable:1.1.1] C:\Users\Lenovo\.gradle\caches\transforms-2\files-2.1\884708a9396f81808c0ac10f4b98ea32\versionedparcelable-1.1.1\AndroidManifest.xml:24:5-25:19
MERGED from [androidx.versionedparcelable:versionedparcelable:1.1.1] C:\Users\Lenovo\.gradle\caches\transforms-2\files-2.1\884708a9396f81808c0ac10f4b98ea32\versionedparcelable-1.1.1\AndroidManifest.xml:24:5-25:19
	android:appComponentFactory
		ADDED from [androidx.core:core:1.9.0] C:\Users\Lenovo\.gradle\caches\transforms-2\files-2.1\2f9250fe16fd137113577b8384df889a\core-1.9.0\AndroidManifest.xml:28:18-86
	android:label
		ADDED from D:\testKerja\gameconsign\lookfor\android\app\src\main\AndroidManifest.xml:7:5-28
	android:icon
		ADDED from D:\testKerja\gameconsign\lookfor\android\app\src\main\AndroidManifest.xml:8:5-41
activity#com.example.lookfor.MainActivity
ADDED from D:\testKerja\gameconsign\lookfor\android\app\src\main\AndroidManifest.xml:9:5-37:16
	android:launchMode
		ADDED from D:\testKerja\gameconsign\lookfor\android\app\src\main\AndroidManifest.xml:11:7-37
	android:hardwareAccelerated
		ADDED from D:\testKerja\gameconsign\lookfor\android\app\src\main\AndroidManifest.xml:14:7-41
	android:windowSoftInputMode
		ADDED from D:\testKerja\gameconsign\lookfor\android\app\src\main\AndroidManifest.xml:15:7-49
	android:configChanges
		ADDED from D:\testKerja\gameconsign\lookfor\android\app\src\main\AndroidManifest.xml:13:7-157
	android:theme
		ADDED from D:\testKerja\gameconsign\lookfor\android\app\src\main\AndroidManifest.xml:12:7-41
	android:name
		ADDED from D:\testKerja\gameconsign\lookfor\android\app\src\main\AndroidManifest.xml:10:7-35
meta-data#io.flutter.embedding.android.NormalTheme
ADDED from D:\testKerja\gameconsign\lookfor\android\app\src\main\AndroidManifest.xml:20:7-23:9
	android:resource
		ADDED from D:\testKerja\gameconsign\lookfor\android\app\src\main\AndroidManifest.xml:22:9-46
	android:name
		ADDED from D:\testKerja\gameconsign\lookfor\android\app\src\main\AndroidManifest.xml:21:9-64
meta-data#io.flutter.embedding.android.SplashScreenDrawable
ADDED from D:\testKerja\gameconsign\lookfor\android\app\src\main\AndroidManifest.xml:29:7-32:9
	android:resource
		ADDED from D:\testKerja\gameconsign\lookfor\android\app\src\main\AndroidManifest.xml:31:9-55
	android:name
		ADDED from D:\testKerja\gameconsign\lookfor\android\app\src\main\AndroidManifest.xml:30:9-73
intent-filter#action:name:android.intent.action.MAIN+category:name:android.intent.category.LAUNCHER
ADDED from D:\testKerja\gameconsign\lookfor\android\app\src\main\AndroidManifest.xml:33:7-36:23
action#android.intent.action.MAIN
ADDED from D:\testKerja\gameconsign\lookfor\android\app\src\main\AndroidManifest.xml:34:9-61
	android:name
		ADDED from D:\testKerja\gameconsign\lookfor\android\app\src\main\AndroidManifest.xml:34:17-58
category#android.intent.category.LAUNCHER
ADDED from D:\testKerja\gameconsign\lookfor\android\app\src\main\AndroidManifest.xml:35:9-69
	android:name
		ADDED from D:\testKerja\gameconsign\lookfor\android\app\src\main\AndroidManifest.xml:35:19-66
meta-data#flutterEmbedding
ADDED from D:\testKerja\gameconsign\lookfor\android\app\src\main\AndroidManifest.xml:40:5-42:27
	android:value
		ADDED from D:\testKerja\gameconsign\lookfor\android\app\src\main\AndroidManifest.xml:42:7-24
	android:name
		ADDED from D:\testKerja\gameconsign\lookfor\android\app\src\main\AndroidManifest.xml:41:7-38
uses-sdk
INJECTED from D:\testKerja\gameconsign\lookfor\android\app\src\main\AndroidManifest.xml reason: use-sdk injection requested
INJECTED from D:\testKerja\gameconsign\lookfor\android\app\src\main\AndroidManifest.xml
INJECTED from D:\testKerja\gameconsign\lookfor\android\app\src\main\AndroidManifest.xml
MERGED from [:shared_preferences_android] D:\testKerja\gameconsign\lookfor\build\shared_preferences_android\intermediates\library_manifest\debug\AndroidManifest.xml:5:5-44
MERGED from [:shared_preferences_android] D:\testKerja\gameconsign\lookfor\build\shared_preferences_android\intermediates\library_manifest\debug\AndroidManifest.xml:5:5-44
MERGED from [:permission_handler_android] D:\testKerja\gameconsign\lookfor\build\permission_handler_android\intermediates\library_manifest\debug\AndroidManifest.xml:5:5-44
MERGED from [:permission_handler_android] D:\testKerja\gameconsign\lookfor\build\permission_handler_android\intermediates\library_manifest\debug\AndroidManifest.xml:5:5-44
MERGED from [:geolocator_android] D:\testKerja\gameconsign\lookfor\build\geolocator_android\intermediates\library_manifest\debug\AndroidManifest.xml:5:5-44
MERGED from [:geolocator_android] D:\testKerja\gameconsign\lookfor\build\geolocator_android\intermediates\library_manifest\debug\AndroidManifest.xml:5:5-44
MERGED from [:geocoding] D:\testKerja\gameconsign\lookfor\build\geocoding\intermediates\library_manifest\debug\AndroidManifest.xml:5:5-44
MERGED from [:geocoding] D:\testKerja\gameconsign\lookfor\build\geocoding\intermediates\library_manifest\debug\AndroidManifest.xml:5:5-44
MERGED from [:android_intent_plus] D:\testKerja\gameconsign\lookfor\build\android_intent_plus\intermediates\library_manifest\debug\AndroidManifest.xml:5:5-44
MERGED from [:android_intent_plus] D:\testKerja\gameconsign\lookfor\build\android_intent_plus\intermediates\library_manifest\debug\AndroidManifest.xml:5:5-44
MERGED from [androidx.window:window-java:1.0.0-beta04] C:\Users\Lenovo\.gradle\caches\transforms-2\files-2.1\ad201fac15a88598107ec645f351f5b4\jetified-window-java-1.0.0-beta04\AndroidManifest.xml:19:5-21:41
MERGED from [androidx.window:window-java:1.0.0-beta04] C:\Users\Lenovo\.gradle\caches\transforms-2\files-2.1\ad201fac15a88598107ec645f351f5b4\jetified-window-java-1.0.0-beta04\AndroidManifest.xml:19:5-21:41
MERGED from [androidx.window:window:1.0.0-beta04] C:\Users\Lenovo\.gradle\caches\transforms-2\files-2.1\03c633e46d75bfb21f082f0417f55161\jetified-window-1.0.0-beta04\AndroidManifest.xml:20:5-22:41
MERGED from [androidx.window:window:1.0.0-beta04] C:\Users\Lenovo\.gradle\caches\transforms-2\files-2.1\03c633e46d75bfb21f082f0417f55161\jetified-window-1.0.0-beta04\AndroidManifest.xml:20:5-22:41
MERGED from [com.google.android.gms:play-services-location:21.0.1] C:\Users\Lenovo\.gradle\caches\transforms-2\files-2.1\d83a1044863c0fad099142167b7a43c3\jetified-play-services-location-21.0.1\AndroidManifest.xml:5:5-44
MERGED from [com.google.android.gms:play-services-location:21.0.1] C:\Users\Lenovo\.gradle\caches\transforms-2\files-2.1\d83a1044863c0fad099142167b7a43c3\jetified-play-services-location-21.0.1\AndroidManifest.xml:5:5-44
MERGED from [com.google.android.gms:play-services-base:18.1.0] C:\Users\Lenovo\.gradle\caches\transforms-2\files-2.1\7de7698b3b379bf98b32af45f2d0763d\jetified-play-services-base-18.1.0\AndroidManifest.xml:18:5-43
MERGED from [com.google.android.gms:play-services-base:18.1.0] C:\Users\Lenovo\.gradle\caches\transforms-2\files-2.1\7de7698b3b379bf98b32af45f2d0763d\jetified-play-services-base-18.1.0\AndroidManifest.xml:18:5-43
MERGED from [com.google.android.gms:play-services-tasks:18.0.2] C:\Users\Lenovo\.gradle\caches\transforms-2\files-2.1\b20a5b857026eace767748d41a82348c\jetified-play-services-tasks-18.0.2\AndroidManifest.xml:4:5-43
MERGED from [com.google.android.gms:play-services-tasks:18.0.2] C:\Users\Lenovo\.gradle\caches\transforms-2\files-2.1\b20a5b857026eace767748d41a82348c\jetified-play-services-tasks-18.0.2\AndroidManifest.xml:4:5-43
MERGED from [com.google.android.gms:play-services-basement:18.1.0] C:\Users\Lenovo\.gradle\caches\transforms-2\files-2.1\0cdd8aceb5059ba1c457f63b9183d1a3\jetified-play-services-basement-18.1.0\AndroidManifest.xml:18:5-43
MERGED from [com.google.android.gms:play-services-basement:18.1.0] C:\Users\Lenovo\.gradle\caches\transforms-2\files-2.1\0cdd8aceb5059ba1c457f63b9183d1a3\jetified-play-services-basement-18.1.0\AndroidManifest.xml:18:5-43
MERGED from [androidx.fragment:fragment:1.1.0] C:\Users\Lenovo\.gradle\caches\transforms-2\files-2.1\8601dd65e0c6893d5abc5ccde1e2cab3\fragment-1.1.0\AndroidManifest.xml:20:5-22:41
MERGED from [androidx.fragment:fragment:1.1.0] C:\Users\Lenovo\.gradle\caches\transforms-2\files-2.1\8601dd65e0c6893d5abc5ccde1e2cab3\fragment-1.1.0\AndroidManifest.xml:20:5-22:41
MERGED from [androidx.viewpager:viewpager:1.0.0] C:\Users\Lenovo\.gradle\caches\transforms-2\files-2.1\ae39e38aa58f5c391f29a4bfad4a41a4\viewpager-1.0.0\AndroidManifest.xml:20:5-44
MERGED from [androidx.viewpager:viewpager:1.0.0] C:\Users\Lenovo\.gradle\caches\transforms-2\files-2.1\ae39e38aa58f5c391f29a4bfad4a41a4\viewpager-1.0.0\AndroidManifest.xml:20:5-44
MERGED from [androidx.loader:loader:1.0.0] C:\Users\Lenovo\.gradle\caches\transforms-2\files-2.1\92d1f830d8a4f76d15ea1f849fb6f29f\loader-1.0.0\AndroidManifest.xml:20:5-44
MERGED from [androidx.loader:loader:1.0.0] C:\Users\Lenovo\.gradle\caches\transforms-2\files-2.1\92d1f830d8a4f76d15ea1f849fb6f29f\loader-1.0.0\AndroidManifest.xml:20:5-44
MERGED from [androidx.activity:activity:1.0.0] C:\Users\Lenovo\.gradle\caches\transforms-2\files-2.1\172ae1f46f014e6681a2cc350fa8b737\jetified-activity-1.0.0\AndroidManifest.xml:20:5-22:41
MERGED from [androidx.activity:activity:1.0.0] C:\Users\Lenovo\.gradle\caches\transforms-2\files-2.1\172ae1f46f014e6681a2cc350fa8b737\jetified-activity-1.0.0\AndroidManifest.xml:20:5-22:41
MERGED from [androidx.customview:customview:1.0.0] C:\Users\Lenovo\.gradle\caches\transforms-2\files-2.1\9ccab238727e236e8aff01a0f95cebe4\customview-1.0.0\AndroidManifest.xml:20:5-44
MERGED from [androidx.customview:customview:1.0.0] C:\Users\Lenovo\.gradle\caches\transforms-2\files-2.1\9ccab238727e236e8aff01a0f95cebe4\customview-1.0.0\AndroidManifest.xml:20:5-44
MERGED from [androidx.core:core:1.9.0] C:\Users\Lenovo\.gradle\caches\transforms-2\files-2.1\2f9250fe16fd137113577b8384df889a\core-1.9.0\AndroidManifest.xml:20:5-44
MERGED from [androidx.core:core:1.9.0] C:\Users\Lenovo\.gradle\caches\transforms-2\files-2.1\2f9250fe16fd137113577b8384df889a\core-1.9.0\AndroidManifest.xml:20:5-44
MERGED from [androidx.tracing:tracing:1.0.0] C:\Users\Lenovo\.gradle\caches\transforms-2\files-2.1\6c6575c923e75933616af1a602db32e0\jetified-tracing-1.0.0\AndroidManifest.xml:20:5-22:41
MERGED from [androidx.tracing:tracing:1.0.0] C:\Users\Lenovo\.gradle\caches\transforms-2\files-2.1\6c6575c923e75933616af1a602db32e0\jetified-tracing-1.0.0\AndroidManifest.xml:20:5-22:41
MERGED from [androidx.lifecycle:lifecycle-runtime:2.3.1] C:\Users\Lenovo\.gradle\caches\transforms-2\files-2.1\8578375fbf5df5bbe65cca21a6cd6acf\lifecycle-runtime-2.3.1\AndroidManifest.xml:20:5-22:41
MERGED from [androidx.lifecycle:lifecycle-runtime:2.3.1] C:\Users\Lenovo\.gradle\caches\transforms-2\files-2.1\8578375fbf5df5bbe65cca21a6cd6acf\lifecycle-runtime-2.3.1\AndroidManifest.xml:20:5-22:41
MERGED from [androidx.versionedparcelable:versionedparcelable:1.1.1] C:\Users\Lenovo\.gradle\caches\transforms-2\files-2.1\884708a9396f81808c0ac10f4b98ea32\versionedparcelable-1.1.1\AndroidManifest.xml:20:5-22:41
MERGED from [androidx.versionedparcelable:versionedparcelable:1.1.1] C:\Users\Lenovo\.gradle\caches\transforms-2\files-2.1\884708a9396f81808c0ac10f4b98ea32\versionedparcelable-1.1.1\AndroidManifest.xml:20:5-22:41
MERGED from [androidx.savedstate:savedstate:1.0.0] C:\Users\Lenovo\.gradle\caches\transforms-2\files-2.1\8d7928c9f52af5f964a662866fcebb3e\jetified-savedstate-1.0.0\AndroidManifest.xml:20:5-22:41
MERGED from [androidx.savedstate:savedstate:1.0.0] C:\Users\Lenovo\.gradle\caches\transforms-2\files-2.1\8d7928c9f52af5f964a662866fcebb3e\jetified-savedstate-1.0.0\AndroidManifest.xml:20:5-22:41
MERGED from [androidx.lifecycle:lifecycle-livedata:2.0.0] C:\Users\Lenovo\.gradle\caches\transforms-2\files-2.1\8108bc8c5f35a568f919dbab3be0e175\lifecycle-livedata-2.0.0\AndroidManifest.xml:20:5-44
MERGED from [androidx.lifecycle:lifecycle-livedata:2.0.0] C:\Users\Lenovo\.gradle\caches\transforms-2\files-2.1\8108bc8c5f35a568f919dbab3be0e175\lifecycle-livedata-2.0.0\AndroidManifest.xml:20:5-44
MERGED from [androidx.lifecycle:lifecycle-livedata-core:2.0.0] C:\Users\Lenovo\.gradle\caches\transforms-2\files-2.1\403e5322101e882ebd13d146c86f92ca\lifecycle-livedata-core-2.0.0\AndroidManifest.xml:20:5-44
MERGED from [androidx.lifecycle:lifecycle-livedata-core:2.0.0] C:\Users\Lenovo\.gradle\caches\transforms-2\files-2.1\403e5322101e882ebd13d146c86f92ca\lifecycle-livedata-core-2.0.0\AndroidManifest.xml:20:5-44
MERGED from [androidx.arch.core:core-runtime:2.1.0] C:\Users\Lenovo\.gradle\caches\transforms-2\files-2.1\16e110bf603f94cf61f970a18f3907e3\core-runtime-2.1.0\AndroidManifest.xml:20:5-22:41
MERGED from [androidx.arch.core:core-runtime:2.1.0] C:\Users\Lenovo\.gradle\caches\transforms-2\files-2.1\16e110bf603f94cf61f970a18f3907e3\core-runtime-2.1.0\AndroidManifest.xml:20:5-22:41
MERGED from [androidx.lifecycle:lifecycle-viewmodel:2.1.0] C:\Users\Lenovo\.gradle\caches\transforms-2\files-2.1\9a0e475eb211916dfa0da9de1d6c02a3\lifecycle-viewmodel-2.1.0\AndroidManifest.xml:20:5-44
MERGED from [androidx.lifecycle:lifecycle-viewmodel:2.1.0] C:\Users\Lenovo\.gradle\caches\transforms-2\files-2.1\9a0e475eb211916dfa0da9de1d6c02a3\lifecycle-viewmodel-2.1.0\AndroidManifest.xml:20:5-44
MERGED from [androidx.annotation:annotation-experimental:1.3.0] C:\Users\Lenovo\.gradle\caches\transforms-2\files-2.1\1cf488caa4c695cd9b77af7e050f0be6\jetified-annotation-experimental-1.3.0\AndroidManifest.xml:20:5-44
MERGED from [androidx.annotation:annotation-experimental:1.3.0] C:\Users\Lenovo\.gradle\caches\transforms-2\files-2.1\1cf488caa4c695cd9b77af7e050f0be6\jetified-annotation-experimental-1.3.0\AndroidManifest.xml:20:5-44
INJECTED from D:\testKerja\gameconsign\lookfor\android\app\src\debug\AndroidManifest.xml
INJECTED from D:\testKerja\gameconsign\lookfor\android\app\src\debug\AndroidManifest.xml
	android:targetSdkVersion
		INJECTED from D:\testKerja\gameconsign\lookfor\android\app\src\main\AndroidManifest.xml
		INJECTED from D:\testKerja\gameconsign\lookfor\android\app\src\debug\AndroidManifest.xml
	android:minSdkVersion
		INJECTED from D:\testKerja\gameconsign\lookfor\android\app\src\main\AndroidManifest.xml
		INJECTED from D:\testKerja\gameconsign\lookfor\android\app\src\debug\AndroidManifest.xml
uses-permission#android.permission.FOREGROUND_SERVICE
ADDED from [:geolocator_android] D:\testKerja\gameconsign\lookfor\build\geolocator_android\intermediates\library_manifest\debug\AndroidManifest.xml:7:5-77
	android:name
		ADDED from [:geolocator_android] D:\testKerja\gameconsign\lookfor\build\geolocator_android\intermediates\library_manifest\debug\AndroidManifest.xml:7:22-74
service#com.baseflow.geolocator.GeolocatorLocationService
ADDED from [:geolocator_android] D:\testKerja\gameconsign\lookfor\build\geolocator_android\intermediates\library_manifest\debug\AndroidManifest.xml:10:9-14:56
	android:enabled
		ADDED from [:geolocator_android] D:\testKerja\gameconsign\lookfor\build\geolocator_android\intermediates\library_manifest\debug\AndroidManifest.xml:12:13-35
	android:exported
		ADDED from [:geolocator_android] D:\testKerja\gameconsign\lookfor\build\geolocator_android\intermediates\library_manifest\debug\AndroidManifest.xml:13:13-37
	android:foregroundServiceType
		ADDED from [:geolocator_android] D:\testKerja\gameconsign\lookfor\build\geolocator_android\intermediates\library_manifest\debug\AndroidManifest.xml:14:13-53
	android:name
		ADDED from [:geolocator_android] D:\testKerja\gameconsign\lookfor\build\geolocator_android\intermediates\library_manifest\debug\AndroidManifest.xml:11:13-77
uses-library#androidx.window.extensions
ADDED from [androidx.window:window:1.0.0-beta04] C:\Users\Lenovo\.gradle\caches\transforms-2\files-2.1\03c633e46d75bfb21f082f0417f55161\jetified-window-1.0.0-beta04\AndroidManifest.xml:25:9-27:40
	android:required
		ADDED from [androidx.window:window:1.0.0-beta04] C:\Users\Lenovo\.gradle\caches\transforms-2\files-2.1\03c633e46d75bfb21f082f0417f55161\jetified-window-1.0.0-beta04\AndroidManifest.xml:27:13-37
	android:name
		ADDED from [androidx.window:window:1.0.0-beta04] C:\Users\Lenovo\.gradle\caches\transforms-2\files-2.1\03c633e46d75bfb21f082f0417f55161\jetified-window-1.0.0-beta04\AndroidManifest.xml:26:13-54
uses-library#androidx.window.sidecar
ADDED from [androidx.window:window:1.0.0-beta04] C:\Users\Lenovo\.gradle\caches\transforms-2\files-2.1\03c633e46d75bfb21f082f0417f55161\jetified-window-1.0.0-beta04\AndroidManifest.xml:28:9-30:40
	android:required
		ADDED from [androidx.window:window:1.0.0-beta04] C:\Users\Lenovo\.gradle\caches\transforms-2\files-2.1\03c633e46d75bfb21f082f0417f55161\jetified-window-1.0.0-beta04\AndroidManifest.xml:30:13-37
	android:name
		ADDED from [androidx.window:window:1.0.0-beta04] C:\Users\Lenovo\.gradle\caches\transforms-2\files-2.1\03c633e46d75bfb21f082f0417f55161\jetified-window-1.0.0-beta04\AndroidManifest.xml:29:13-51
activity#com.google.android.gms.common.api.GoogleApiActivity
ADDED from [com.google.android.gms:play-services-base:18.1.0] C:\Users\Lenovo\.gradle\caches\transforms-2\files-2.1\7de7698b3b379bf98b32af45f2d0763d\jetified-play-services-base-18.1.0\AndroidManifest.xml:20:9-22:45
	android:exported
		ADDED from [com.google.android.gms:play-services-base:18.1.0] C:\Users\Lenovo\.gradle\caches\transforms-2\files-2.1\7de7698b3b379bf98b32af45f2d0763d\jetified-play-services-base-18.1.0\AndroidManifest.xml:22:19-43
	android:theme
		ADDED from [com.google.android.gms:play-services-base:18.1.0] C:\Users\Lenovo\.gradle\caches\transforms-2\files-2.1\7de7698b3b379bf98b32af45f2d0763d\jetified-play-services-base-18.1.0\AndroidManifest.xml:21:19-78
	android:name
		ADDED from [com.google.android.gms:play-services-base:18.1.0] C:\Users\Lenovo\.gradle\caches\transforms-2\files-2.1\7de7698b3b379bf98b32af45f2d0763d\jetified-play-services-base-18.1.0\AndroidManifest.xml:20:19-85
meta-data#com.google.android.gms.version
ADDED from [com.google.android.gms:play-services-basement:18.1.0] C:\Users\Lenovo\.gradle\caches\transforms-2\files-2.1\0cdd8aceb5059ba1c457f63b9183d1a3\jetified-play-services-basement-18.1.0\AndroidManifest.xml:21:9-23:69
	android:value
		ADDED from [com.google.android.gms:play-services-basement:18.1.0] C:\Users\Lenovo\.gradle\caches\transforms-2\files-2.1\0cdd8aceb5059ba1c457f63b9183d1a3\jetified-play-services-basement-18.1.0\AndroidManifest.xml:23:13-66
	android:name
		ADDED from [com.google.android.gms:play-services-basement:18.1.0] C:\Users\Lenovo\.gradle\caches\transforms-2\files-2.1\0cdd8aceb5059ba1c457f63b9183d1a3\jetified-play-services-basement-18.1.0\AndroidManifest.xml:22:13-58
permission#${applicationId}.DYNAMIC_RECEIVER_NOT_EXPORTED_PERMISSION
ADDED from [androidx.core:core:1.9.0] C:\Users\Lenovo\.gradle\caches\transforms-2\files-2.1\2f9250fe16fd137113577b8384df889a\core-1.9.0\AndroidManifest.xml:22:5-24:47
	android:protectionLevel
		ADDED from [androidx.core:core:1.9.0] C:\Users\Lenovo\.gradle\caches\transforms-2\files-2.1\2f9250fe16fd137113577b8384df889a\core-1.9.0\AndroidManifest.xml:24:9-44
	android:name
		ADDED from [androidx.core:core:1.9.0] C:\Users\Lenovo\.gradle\caches\transforms-2\files-2.1\2f9250fe16fd137113577b8384df889a\core-1.9.0\AndroidManifest.xml:23:9-81
permission#com.example.lookfor.DYNAMIC_RECEIVER_NOT_EXPORTED_PERMISSION
ADDED from [androidx.core:core:1.9.0] C:\Users\Lenovo\.gradle\caches\transforms-2\files-2.1\2f9250fe16fd137113577b8384df889a\core-1.9.0\AndroidManifest.xml:22:5-24:47
	android:protectionLevel
		ADDED from [androidx.core:core:1.9.0] C:\Users\Lenovo\.gradle\caches\transforms-2\files-2.1\2f9250fe16fd137113577b8384df889a\core-1.9.0\AndroidManifest.xml:24:9-44
	android:name
		ADDED from [androidx.core:core:1.9.0] C:\Users\Lenovo\.gradle\caches\transforms-2\files-2.1\2f9250fe16fd137113577b8384df889a\core-1.9.0\AndroidManifest.xml:23:9-81
uses-permission#${applicationId}.DYNAMIC_RECEIVER_NOT_EXPORTED_PERMISSION
ADDED from [androidx.core:core:1.9.0] C:\Users\Lenovo\.gradle\caches\transforms-2\files-2.1\2f9250fe16fd137113577b8384df889a\core-1.9.0\AndroidManifest.xml:26:5-97
	android:name
		ADDED from [androidx.core:core:1.9.0] C:\Users\Lenovo\.gradle\caches\transforms-2\files-2.1\2f9250fe16fd137113577b8384df889a\core-1.9.0\AndroidManifest.xml:26:22-94
uses-permission#com.example.lookfor.DYNAMIC_RECEIVER_NOT_EXPORTED_PERMISSION
ADDED from [androidx.core:core:1.9.0] C:\Users\Lenovo\.gradle\caches\transforms-2\files-2.1\2f9250fe16fd137113577b8384df889a\core-1.9.0\AndroidManifest.xml:26:5-97
	android:name
		ADDED from [androidx.core:core:1.9.0] C:\Users\Lenovo\.gradle\caches\transforms-2\files-2.1\2f9250fe16fd137113577b8384df889a\core-1.9.0\AndroidManifest.xml:26:22-94
